[gd_scene load_steps=3 format=2]

[ext_resource path="res://Project/assets/House.png" type="Texture" id=1]

[sub_resource type="RectangleShape2D" id=1]
extents = Vector2( 38.2421, 39.4476 )

[node name="house" type="StaticBody2D"]

[node name="Sprite" type="Sprite" parent="."]
position = Vector2( -0.350784, -43.1455 )
scale = Vector2( 3, 3 )
texture = ExtResource( 1 )

[node name="CollisionShape2D" type="CollisionShape2D" parent="."]
position = Vector2( -62.5524, 29.7421 )
rotation = -1.5708
shape = SubResource( 1 )

[node name="CollisionShape2D2" type="CollisionShape2D" parent="."]
position = Vector2( 56.4476, 29.7421 )
rotation = -1.5708
shape = SubResource( 1 )
