; Engine configuration file.
; It's best edited using the editor UI and not directly,
; since the parameters that go here are not all obvious.
;
; Format:
;   [section] ; section goes between []
;   param=value ; assign values to parameters

config_version=4

_global_script_classes=[  ]
_global_script_class_icons={

}

[application]

config/name="The Secret"
run/main_scene="res://MainScreen.tscn"
config/icon="res://icon.png"

[autoload]

HUD="*res://HUD.tscn"
Playerstats="*res://Playerstats.gd"

[display]

window/stretch/mode="2d"

[input]

ui_end={
"deadzone": 0.5,
"events": [ Object(InputEventKey,"resource_local_to_scene":false,"resource_name":"","device":0,"alt":false,"shift":false,"control":false,"meta":false,"command":false,"pressed":false,"scancode":16777230,"unicode":0,"echo":false,"script":null)
 ]
}
ui_attack={
"deadzone": 0.5,
"events": [ Object(InputEventKey,"resource_local_to_scene":false,"resource_name":"","device":0,"alt":false,"shift":false,"control":false,"meta":false,"command":false,"pressed":false,"scancode":32,"unicode":0,"echo":false,"script":null)
, Object(InputEventKey,"resource_local_to_scene":false,"resource_name":"","device":0,"alt":false,"shift":false,"control":false,"meta":false,"command":false,"pressed":false,"scancode":90,"unicode":0,"echo":false,"script":null)
 ]
}

[layer_names]

2d_render/layer_1="World"
2d_render/layer_2="Player"
2d_render/layer_3="Playerhurtbox"
2d_render/layer_4="Enemyhurtbox"

[rendering]

environment/default_environment="res://default_env.tres"
